[contenido]---Visualizacion-de-datos---Parte-II.knit
…
# Armo tabla
tabla_victimas <- base_snic %>% 
  filter(!is.na(cantidad_victimas) & codigo_delito_snic_id == 1) %>% 
  mutate(periodo = paste0(anio, "_", mes),
         anio_mes = lubridate::ym(periodo)) %>% 
  group_by(anio_mes) %>% 
  summarise(cant_victimas_h_doloso = sum(cantidad_victimas, na.rm = TRUE))

Una vez construda, nuestra tabla se ve as:

tabla_victimas

## # A tibble: 48 x 2
##    anio_mes   cant_victimas_h_doloso
##    <date>                      <dbl>
##  1 2017-01-01                    234
##  2 2017-02-01                    212
##  3 2017-03-01                    212
##  4 2017-04-01                    196
##  5 2017-05-01                    181
##  6 2017-06-01                    180
##  7 2017-07-01                    183
##  8 2017-08-01                    189
##  9 2017-09-01                    150
## 10 2017-10-01                    177
## # ... with 38 more rows
## # i Use `print(n = ...)` to see more rows
…
